<svg width="18" height="18" viewBox="0 0 18 18" fill="none" xmlns="http://www.w3.org/2000/svg">
<g clip-path="url(#clip0_3236_68135)">
<path d="M9 15.2812C12.5208 15.2812 15.375 12.4271 15.375 8.90625C15.375 5.38543 12.5208 2.53125 9 2.53125C5.47918 2.53125 2.625 5.38543 2.625 8.90625C2.625 12.4271 5.47918 15.2812 9 15.2812Z" stroke="white" stroke-width="1.5" stroke-linecap="round" stroke-linejoin="round"/>
<path d="M9 5.36328V8.90495L11.125 11.0299" stroke="white" stroke-width="1.5" stroke-linecap="round" stroke-linejoin="round"/>
</g>
<defs>
<clipPath id="clip0_3236_68135">
<rect width="17" height="17" fill="white" transform="translate(0.5 0.40625)"/>
</clipPath>
</defs>
</svg>
