<svg width="71" height="20" viewBox="0 0 71 20" fill="none" xmlns="http://www.w3.org/2000/svg">
<g clip-path="url(#clip0_1868_154733)">
<path d="M9.99996 18.3334C5.39746 18.3334 1.66663 14.6026 1.66663 10.0001C1.66663 5.39758 5.39746 1.66675 9.99996 1.66675C14.6025 1.66675 18.3333 5.39758 18.3333 10.0001C18.3333 14.6026 14.6025 18.3334 9.99996 18.3334ZM9.99996 16.6667C11.7681 16.6667 13.4638 15.9644 14.714 14.7141C15.9642 13.4639 16.6666 11.7682 16.6666 10.0001C16.6666 8.23197 15.9642 6.53628 14.714 5.28604C13.4638 4.03579 11.7681 3.33341 9.99996 3.33341C8.23185 3.33341 6.53616 4.03579 5.28591 5.28604C4.03567 6.53628 3.33329 8.23197 3.33329 10.0001C3.33329 11.7682 4.03567 13.4639 5.28591 14.7141C6.53616 15.9644 8.23185 16.6667 9.99996 16.6667ZM5.83329 10.0001H7.49996C7.49996 10.6631 7.76335 11.299 8.23219 11.7678C8.70103 12.2367 9.33692 12.5001 9.99996 12.5001C10.663 12.5001 11.2989 12.2367 11.7677 11.7678C12.2366 11.299 12.5 10.6631 12.5 10.0001H14.1666C14.1666 11.1051 13.7276 12.165 12.9462 12.9464C12.1648 13.7278 11.105 14.1667 9.99996 14.1667C8.89489 14.1667 7.83508 13.7278 7.05368 12.9464C6.27228 12.165 5.83329 11.1051 5.83329 10.0001Z" fill="#C8C8C8"/>
</g>
<path d="M37.044 14.5H35.448L30.646 7.234V14.5H29.05V4.756H30.646L35.448 12.008V4.756H37.044V14.5ZM38.4678 10.608C38.4678 9.83333 38.6265 9.14733 38.9438 8.55C39.2705 7.95267 39.7092 7.49067 40.2598 7.164C40.8198 6.828 41.4358 6.66 42.1078 6.66C42.7145 6.66 43.2418 6.78133 43.6898 7.024C44.1472 7.25733 44.5112 7.55133 44.7818 7.906V6.786H46.3918V14.5H44.7818V13.352C44.5112 13.716 44.1425 14.0193 43.6758 14.262C43.2092 14.5047 42.6772 14.626 42.0798 14.626C41.4172 14.626 40.8105 14.458 40.2598 14.122C39.7092 13.7767 39.2705 13.3007 38.9438 12.694C38.6265 12.078 38.4678 11.3827 38.4678 10.608ZM44.7818 10.636C44.7818 10.104 44.6698 9.642 44.4458 9.25C44.2312 8.858 43.9465 8.55933 43.5918 8.354C43.2372 8.14867 42.8545 8.046 42.4438 8.046C42.0332 8.046 41.6505 8.14867 41.2958 8.354C40.9412 8.55 40.6518 8.844 40.4278 9.236C40.2132 9.61867 40.1058 10.076 40.1058 10.608C40.1058 11.14 40.2132 11.6067 40.4278 12.008C40.6518 12.4093 40.9412 12.7173 41.2958 12.932C41.6598 13.1373 42.0425 13.24 42.4438 13.24C42.8545 13.24 43.2372 13.1373 43.5918 12.932C43.9465 12.7267 44.2312 12.428 44.4458 12.036C44.6698 11.6347 44.7818 11.168 44.7818 10.636ZM57.6861 6.66C58.2928 6.66 58.8341 6.786 59.3101 7.038C59.7955 7.29 60.1735 7.66333 60.4441 8.158C60.7241 8.65267 60.8641 9.25 60.8641 9.95V14.5H59.2821V10.188C59.2821 9.49733 59.1095 8.97 58.7641 8.606C58.4188 8.23267 57.9475 8.046 57.3501 8.046C56.7528 8.046 56.2768 8.23267 55.9221 8.606C55.5768 8.97 55.4041 9.49733 55.4041 10.188V14.5H53.8221V10.188C53.8221 9.49733 53.6495 8.97 53.3041 8.606C52.9588 8.23267 52.4875 8.046 51.8901 8.046C51.2928 8.046 50.8168 8.23267 50.4621 8.606C50.1168 8.97 49.9441 9.49733 49.9441 10.188V14.5H48.3481V6.786H49.9441V7.668C50.2055 7.35067 50.5368 7.10333 50.9381 6.926C51.3395 6.74867 51.7688 6.66 52.2261 6.66C52.8421 6.66 53.3928 6.79067 53.8781 7.052C54.3635 7.31333 54.7368 7.69133 54.9981 8.186C55.2315 7.71933 55.5955 7.35067 56.0901 7.08C56.5848 6.8 57.1168 6.66 57.6861 6.66ZM69.825 10.454C69.825 10.7433 69.8063 11.0047 69.769 11.238H63.875C63.9217 11.854 64.1503 12.3487 64.561 12.722C64.9717 13.0953 65.4757 13.282 66.073 13.282C66.9317 13.282 67.5383 12.9227 67.893 12.204H69.615C69.3817 12.9133 68.957 13.4967 68.341 13.954C67.7343 14.402 66.9783 14.626 66.073 14.626C65.3357 14.626 64.673 14.4627 64.085 14.136C63.5063 13.8 63.049 13.3333 62.713 12.736C62.3863 12.1293 62.223 11.4293 62.223 10.636C62.223 9.84267 62.3817 9.14733 62.699 8.55C63.0257 7.94333 63.4783 7.47667 64.057 7.15C64.645 6.82333 65.317 6.66 66.073 6.66C66.801 6.66 67.4497 6.81867 68.019 7.136C68.5883 7.45333 69.0317 7.90133 69.349 8.48C69.6663 9.04933 69.825 9.70733 69.825 10.454ZM68.159 9.95C68.1497 9.362 67.9397 8.89067 67.529 8.536C67.1183 8.18133 66.6097 8.004 66.003 8.004C65.4523 8.004 64.981 8.18133 64.589 8.536C64.197 8.88133 63.9637 9.35267 63.889 9.95H68.159Z" fill="white"/>
<defs>
<clipPath id="clip0_1868_154733">
<rect width="20" height="20" fill="white"/>
</clipPath>
</defs>
</svg>
