<svg width="17" height="20" viewBox="0 0 17 20" fill="none" xmlns="http://www.w3.org/2000/svg">
<path fill-rule="evenodd" clip-rule="evenodd" d="M8.3722 -0.000436877C11.2262 -0.000436877 13.5542 2.25618 13.6688 5.08213L13.6732 5.30061V6.87647C15.4497 7.49312 16.725 9.18157 16.725 11.1684V15.4574C16.725 17.9663 14.6915 19.9994 12.183 19.9994H4.542C2.03347 19.9994 0 17.9663 0 15.4574V11.1684C0 9.18142 1.27545 7.49286 3.0522 6.87633L3.05221 5.27733C3.06502 2.34933 5.44806 -0.0131919 8.3722 -0.000436877ZM12.1732 5.30061V6.62641H4.5522V5.28061L4.558 5.0853C4.66855 3.08007 6.33555 1.49069 8.36893 1.49956C10.471 1.49956 12.1732 3.20181 12.1732 5.30061ZM12.183 8.12641H4.542C2.86184 8.12641 1.5 9.488 1.5 11.1684V15.4574C1.5 17.1378 2.86184 18.4994 4.542 18.4994H12.183C13.8632 18.4994 15.225 17.1378 15.225 15.4574V11.1684C15.225 9.488 13.8632 8.12641 12.183 8.12641ZM9.10585 12.1007C9.05619 11.7347 8.7424 11.4525 8.3627 11.4525C7.94849 11.4525 7.6127 11.7883 7.6127 12.2025V14.4235L7.61955 14.5253C7.66921 14.8914 7.983 15.1735 8.3627 15.1735C8.77691 15.1735 9.1127 14.8377 9.1127 14.4235V12.2025L9.10585 12.1007Z" fill="white"/>
</svg>
