<svg width="18" height="18" viewBox="0 0 18 18" fill="none" xmlns="http://www.w3.org/2000/svg">
<path d="M9.00008 17.3346C4.39758 17.3346 0.666748 13.6038 0.666748 9.0013C0.666748 4.3988 4.39758 0.667969 9.00008 0.667969C13.6026 0.667969 17.3334 4.3988 17.3334 9.0013C17.3334 13.6038 13.6026 17.3346 9.00008 17.3346ZM9.00008 15.668C10.7682 15.668 12.4639 14.9656 13.7141 13.7153C14.9644 12.4651 15.6667 10.7694 15.6667 9.0013C15.6667 7.23319 14.9644 5.5375 13.7141 4.28726C12.4639 3.03701 10.7682 2.33464 9.00008 2.33464C7.23197 2.33464 5.53628 3.03701 4.28604 4.28726C3.03579 5.5375 2.33341 7.23319 2.33341 9.0013C2.33341 10.7694 3.03579 12.4651 4.28604 13.7153C5.53628 14.9656 7.23197 15.668 9.00008 15.668ZM4.83341 9.0013H6.50008C6.50008 9.66434 6.76347 10.3002 7.23231 10.7691C7.70115 11.2379 8.33704 11.5013 9.00008 11.5013C9.66312 11.5013 10.299 11.2379 10.7678 10.7691C11.2367 10.3002 11.5001 9.66434 11.5001 9.0013H13.1667C13.1667 10.1064 12.7278 11.1662 11.9464 11.9476C11.165 12.729 10.1051 13.168 9.00008 13.168C7.89501 13.168 6.8352 12.729 6.0538 11.9476C5.2724 11.1662 4.83341 10.1064 4.83341 9.0013Z" fill="#C8C8C8"/>
</svg>
