<svg width="21" height="24" viewBox="0 0 21 24" fill="none" xmlns="http://www.w3.org/2000/svg">
<g clip-path="url(#clip0_1_8648)">
<path d="M17.4133 1.86576C16.306 0.603613 14.3043 0.0625 11.7435 0.0625H4.31147C4.0581 0.0625094 3.81305 0.1529 3.62037 0.317422C3.42769 0.481944 3.30002 0.709804 3.26031 0.960036L0.165745 20.5866C0.104235 20.9736 0.403918 21.324 0.796182 21.324H5.38447L6.53679 14.0151L6.50103 14.244C6.58312 13.7273 7.02498 13.3463 7.54821 13.3463H9.72855C14.0118 13.3463 17.3657 11.6065 18.3454 6.57373C18.3745 6.42488 18.3997 6.28001 18.4215 6.13847C18.2978 6.07299 18.2978 6.07299 18.4215 6.13847C18.7132 4.27831 18.4195 3.01212 17.4133 1.86576Z" fill="#27346A"/>
<path d="M8.29245 5.46838C8.41789 5.40865 8.55508 5.3777 8.69401 5.37778H14.5206C15.2106 5.37778 15.8541 5.42269 16.4422 5.51733C16.6068 5.54357 16.7705 5.5749 16.9331 5.61127C17.1636 5.66213 17.3914 5.72438 17.6157 5.79778C17.9048 5.89434 18.1741 6.00679 18.4216 6.13847C18.7132 4.2776 18.4195 3.01212 17.4133 1.86576C16.3054 0.603613 14.3043 0.0625 11.7435 0.0625H4.31083C3.78752 0.0625 3.34233 0.44348 3.26032 0.960036L0.165746 20.5858C0.104236 20.9735 0.403918 21.3235 0.795547 21.3235H5.38448L7.77518 6.16295C7.79868 6.01394 7.85804 5.87286 7.94815 5.75187C8.03826 5.63088 8.15641 5.53359 8.29245 5.46838Z" fill="#27346A"/>
<path d="M18.3469 6.57588C17.3672 11.6079 14.0134 13.3484 9.72999 13.3484H7.54901C7.02578 13.3484 6.58384 13.7295 6.50255 14.2461L5.06898 23.3339C5.01542 23.6726 5.27735 23.9795 5.62003 23.9795H9.48784C9.7094 23.9795 9.92367 23.9004 10.0921 23.7564C10.2606 23.6125 10.3721 23.4132 10.4068 23.1944L10.4444 22.9973L11.1734 18.3772L11.2204 18.1219C11.255 17.903 11.3666 17.7037 11.535 17.5598C11.7034 17.4159 11.9177 17.3368 12.1392 17.3367H12.7181C16.4648 17.3367 19.3987 15.8145 20.256 11.4122C20.6138 9.57247 20.4287 8.03647 19.482 6.95758C19.1949 6.6308 18.8383 6.36092 18.4229 6.14062C18.4004 6.28288 18.376 6.42704 18.3469 6.57588Z" fill="#2790C3"/>
<path d="M17.3979 5.73479C17.2451 5.69018 17.0909 5.65069 16.9356 5.61638C16.7728 5.5806 16.6091 5.54949 16.4447 5.52308C15.8559 5.42779 15.2129 5.38281 14.5223 5.38281H8.6964C8.55736 5.3825 8.42006 5.41372 8.29484 5.47413C8.15865 5.53914 8.04036 5.63637 7.95021 5.75739C7.86006 5.87842 7.80078 6.01959 7.77748 6.1687L6.53918 14.0202L6.50342 14.2491C6.58487 13.7324 7.02673 13.3514 7.55004 13.3514H9.73102C14.0143 13.3514 17.3681 11.6116 18.3478 6.57884C18.377 6.42999 18.4015 6.28576 18.4239 6.14358C18.1758 6.01262 17.9073 5.89945 17.6181 5.80353C17.5451 5.77934 17.4718 5.75642 17.398 5.73479" fill="#1F264F"/>
</g>
<defs>
<clipPath id="clip0_1_8648">
<rect width="20.3444" height="24" fill="white" transform="translate(0.155762)"/>
</clipPath>
</defs>
</svg>
