<svg width="24" height="24" viewBox="0 0 24 24" fill="none" xmlns="http://www.w3.org/2000/svg">
<path d="M10.787 4.3473C10.7482 4.30853 10.7014 4.27873 10.6499 4.25999C10.5984 4.24126 10.5434 4.23405 10.4887 4.23888C10.4341 4.24371 10.3812 4.26045 10.3338 4.28793C10.2864 4.31541 10.2455 4.35296 10.2142 4.39793C9.42308 5.527 8.99915 6.87243 9.0001 8.25105C9.00078 8.54639 9.02051 8.84138 9.05916 9.13418L2.5426 18.0217C2.3293 18.3102 2.22698 18.6658 2.25435 19.0235C2.28173 19.3812 2.43696 19.7171 2.69166 19.9698L4.03135 21.3095C4.28402 21.5642 4.61993 21.7194 4.97765 21.7468C5.33537 21.7742 5.69099 21.6719 5.97947 21.4586L14.8679 14.9401C15.1604 14.9794 15.455 14.9997 15.7501 15.0011C17.1282 15.0024 18.4733 14.5791 19.6023 13.7889C19.6473 13.7575 19.6848 13.7167 19.7123 13.6692C19.7398 13.6218 19.7565 13.5689 19.7613 13.5143C19.7662 13.4597 19.759 13.4047 19.7402 13.3531C19.7215 13.3016 19.6917 13.2548 19.6529 13.2161L10.787 4.3473ZM11.0317 14.0298L9.53166 15.5298C9.46271 15.6024 9.37993 15.6604 9.28819 15.7005C9.19646 15.7406 9.09763 15.7619 8.99753 15.7632C8.89743 15.7644 8.79809 15.7457 8.70536 15.708C8.61262 15.6702 8.52838 15.6143 8.4576 15.5436C8.38681 15.4728 8.33091 15.3885 8.29319 15.2958C8.25548 15.2031 8.23671 15.1037 8.23799 15.0036C8.23927 14.9035 8.26058 14.8047 8.30066 14.713C8.34073 14.6212 8.39877 14.5384 8.47135 14.4695L9.97135 12.9695C10.1131 12.8348 10.302 12.7608 10.4975 12.7633C10.6931 12.7658 10.88 12.8446 11.0183 12.9829C11.1566 13.1212 11.2354 13.3081 11.2379 13.5036C11.2404 13.6992 11.1664 13.888 11.0317 14.0298ZM21.2879 12.1023C21.2566 12.1474 21.2157 12.1851 21.1682 12.2127C21.1206 12.2403 21.0676 12.2571 21.0129 12.2619C20.9581 12.2667 20.903 12.2595 20.8514 12.2407C20.7998 12.2218 20.7529 12.1919 20.7142 12.1529L11.8482 3.28699C11.8093 3.24823 11.7793 3.20137 11.7605 3.14975C11.7417 3.09813 11.7344 3.043 11.7392 2.98827C11.7441 2.93353 11.7609 2.88053 11.7884 2.833C11.816 2.78547 11.8537 2.74459 11.8988 2.71324C13.1975 1.8071 14.7735 1.38685 16.3509 1.52615C17.9283 1.66545 19.4063 2.35541 20.526 3.47512C21.6457 4.59483 22.3357 6.07287 22.475 7.65024C22.6143 9.22761 22.1941 10.8037 21.2879 12.1023Z" fill="white"/>
</svg>
