<svg width="24" height="25" viewBox="0 0 24 25" fill="none" xmlns="http://www.w3.org/2000/svg">
<path d="M8.38087 9.18237C7.98712 6.61362 11.6809 5.84487 12.2809 8.45112L13.2934 13.4761H17.0621C18.1496 13.4761 18.7309 14.3574 18.7309 15.1636V21.9886C18.7309 23.6574 16.3684 23.6386 16.3684 21.9511V16.6636H11.5496C10.4246 16.6636 9.73087 15.8949 9.56212 15.0136L8.38087 9.18237Z" fill="white"/>
<path d="M10.1422 6.18281C11.3609 6.18281 12.3547 5.20781 12.3734 3.97031C12.3734 2.75156 11.3797 1.75781 10.1422 1.75781C8.92344 1.75781 7.92969 2.73281 7.92969 3.95156C7.92969 5.18906 8.90469 6.18281 10.1422 6.18281Z" fill="white"/>
<path d="M5.32591 11.8617C5.06341 10.4367 6.93841 10.0992 7.20091 11.5242L8.02591 16.0055C8.21341 16.943 8.88841 17.7305 9.86341 18.0305C10.1634 18.1242 10.4822 18.1242 10.7634 18.143L13.4822 18.1617C14.9259 18.1617 14.9259 20.0555 13.4634 20.0555L10.6134 20.0367C10.1822 20.0367 9.73216 19.9805 9.30091 19.8492C7.61341 19.343 6.43216 17.9555 6.13216 16.343L5.32591 11.8617Z" fill="white"/>
</svg>
