<svg width="17" height="18" viewBox="0 0 17 18" fill="none" xmlns="http://www.w3.org/2000/svg">
<path d="M12.0378 3.3335H4.95451C2.24159 3.3335 1.48367 3.98516 1.41992 6.521C2.78701 6.521 3.89201 7.63308 3.89201 9.00016C3.89201 10.3672 2.78701 11.4722 1.41992 11.4793C1.48367 14.0152 2.24159 14.6668 4.95451 14.6668H12.0378C14.8712 14.6668 15.5795 13.9585 15.5795 11.1252V6.87516C15.5795 4.04183 14.8712 3.3335 12.0378 3.3335Z" stroke="white" stroke-width="1.5" stroke-linecap="round" stroke-linejoin="round"/>
<path d="M6.37012 3.3335V5.81266" stroke="white" stroke-width="1.5" stroke-linecap="round" stroke-linejoin="round"/>
<path d="M6.37012 12.1875V14.6667" stroke="white" stroke-width="1.5" stroke-linecap="round" stroke-linejoin="round"/>
<path d="M10.6425 7.10854L11.0817 7.99395C11.1242 8.07895 11.2092 8.1427 11.3013 8.15687L12.2788 8.29854C12.5196 8.33395 12.6188 8.63145 12.4417 8.80145L11.7333 9.48854C11.6625 9.55229 11.6342 9.65145 11.6484 9.75062L11.8184 10.721C11.8609 10.9619 11.6058 11.146 11.3933 11.0327L10.5221 10.5723C10.4371 10.5298 10.3308 10.5298 10.2458 10.5723L9.3746 11.0327C9.15502 11.146 8.9071 10.9619 8.9496 10.721L9.1196 9.75062C9.13377 9.65145 9.10543 9.55937 9.0346 9.48854L8.33335 8.80145C8.15627 8.63145 8.25543 8.33395 8.49627 8.29854L9.47377 8.15687C9.57293 8.1427 9.65085 8.08604 9.69335 7.99395L10.1254 7.10854C10.2246 6.88895 10.5363 6.88895 10.6425 7.10854Z" stroke="white" stroke-width="1.5" stroke-linecap="round" stroke-linejoin="round"/>
</svg>
