<svg width="24" height="24" viewBox="0 0 24 24" fill="none" xmlns="http://www.w3.org/2000/svg">
<path fill-rule="evenodd" clip-rule="evenodd" d="M5.452 3H18.5475C19.902 3 21 4.098 21 5.452V18.5475C21 19.902 19.902 21 18.548 21H5.452C4.098 21 3 19.902 3 18.548V5.452C3 4.098 4.098 3 5.452 3Z" fill="#212121"/>
<path fill-rule="evenodd" clip-rule="evenodd" d="M14.6041 10.3032C15.3921 10.8662 16.3576 11.1972 17.4001 11.1972V9.19174C17.2026 9.19174 17.0061 9.17124 16.8131 9.13024V10.7087C15.7706 10.7087 14.8056 10.3772 14.0171 9.81474V13.9067C14.0171 15.9537 12.3566 17.6132 10.3086 17.6132C9.54464 17.6132 8.83414 17.3822 8.24414 16.9862C8.91764 17.6742 9.85664 18.1012 10.8956 18.1012C12.9436 18.1012 14.6041 16.4417 14.6041 14.3947V10.3032ZM15.3286 8.28024C14.9261 7.84074 14.6616 7.27224 14.6041 6.64374V6.38574H14.0476C14.1876 7.18424 14.6656 7.86674 15.3286 8.28024ZM9.53964 15.4157C9.31464 15.1207 9.19314 14.7602 9.19364 14.3892C9.19364 13.4527 9.95314 12.6937 10.8901 12.6937C11.0646 12.6937 11.2381 12.7202 11.4046 12.7732V10.7232C11.2101 10.6967 11.0141 10.6852 10.8176 10.6892V12.2847C10.6511 12.2317 10.4776 12.2052 10.3026 12.2052C9.36564 12.2052 8.60614 12.9642 8.60614 13.9007C8.60664 14.5632 8.98614 15.1367 9.53964 15.4157Z" fill="#EC407A"/>
<path fill-rule="evenodd" clip-rule="evenodd" d="M14.0165 9.81474C14.8045 10.3777 15.77 10.7087 16.8125 10.7087V9.13024C16.2305 9.00624 15.7155 8.70224 15.328 8.27974C14.665 7.86624 14.1875 7.18424 14.0475 6.38574H12.586V14.3947C12.5825 15.3282 11.8245 16.0842 10.8895 16.0842C10.3385 16.0842 9.849 15.8217 9.539 15.4152C8.9855 15.1362 8.606 14.5627 8.606 13.9007C8.606 12.9642 9.3655 12.2052 10.3025 12.2052C10.482 12.2052 10.655 12.2332 10.8175 12.2847V10.6897C8.8055 10.7312 7.1875 12.3742 7.1875 14.3952C7.1875 15.4042 7.5905 16.3187 8.2445 16.9867C8.8345 17.3827 9.545 17.6137 10.309 17.6137C12.357 17.6137 14.0175 15.9542 14.0175 13.9072L14.0165 9.81474Z" fill="white"/>
<path fill-rule="evenodd" clip-rule="evenodd" d="M16.8126 9.13096V8.70396C16.2876 8.70496 15.7736 8.55796 15.3281 8.27996C15.7221 8.71146 16.2411 9.00896 16.8126 9.13096ZM14.0471 6.38596C14.0336 6.30946 14.0236 6.23296 14.0166 6.15546V5.89746H11.9986V13.907C11.9956 14.8405 11.2371 15.5965 10.3021 15.5965C10.0276 15.5965 9.76861 15.5315 9.53911 15.4155C9.84911 15.822 10.3386 16.0845 10.8896 16.0845C11.8246 16.0845 12.5826 15.3285 12.5861 14.395V6.38596H14.0471ZM10.8171 10.69V10.2355C10.6486 10.2125 10.4786 10.201 10.3081 10.201C8.25961 10.201 6.59961 11.8605 6.59961 13.9075C6.59961 15.191 7.25211 16.322 8.24361 16.987C7.58961 16.319 7.18661 15.4045 7.18661 14.3955C7.18661 12.3745 8.80511 10.7315 10.8171 10.69Z" fill="#81D4FA"/>
</svg>
