<svg width="246" height="171" viewBox="0 0 246 171" fill="none" xmlns="http://www.w3.org/2000/svg">
<path d="M74.8579 105.785V113.246" stroke="#263238" stroke-linecap="round" stroke-linejoin="round"/>
<path d="M78.5922 109.519H71.1309" stroke="#263238" stroke-linecap="round" stroke-linejoin="round"/>
<path d="M239.02 33.8853V41.3466" stroke="#263238" stroke-linecap="round" stroke-linejoin="round"/>
<path d="M242.747 37.6128H235.286" stroke="#263238" stroke-linecap="round" stroke-linejoin="round"/>
<path d="M230.538 99.6804V108.498" stroke="#263238" stroke-linecap="round" stroke-linejoin="round"/>
<path d="M234.95 104.093H226.132" stroke="#263238" stroke-linecap="round" stroke-linejoin="round"/>
<path d="M58.5789 78.9891C58.5802 79.594 58.4019 80.1856 58.0667 80.6891C57.7314 81.1926 57.2543 81.5852 56.6957 81.8173C56.1371 82.0493 55.5222 82.1104 54.9288 81.9927C54.3355 81.875 53.7905 81.5839 53.3627 81.1561C52.935 80.7284 52.6439 80.1834 52.5262 79.5901C52.4085 78.9967 52.4695 78.3818 52.7016 77.8232C52.9337 77.2646 53.3263 76.7875 53.8298 76.4522C54.3333 76.117 54.9249 75.9387 55.5298 75.9399C56.3385 75.9399 57.114 76.2612 57.6859 76.833C58.2577 77.4048 58.5789 78.1804 58.5789 78.9891Z" stroke="#263238" stroke-linecap="round" stroke-linejoin="round"/>
<path d="M54.5091 139.028C55.8221 139.028 56.8864 137.964 56.8864 136.651C56.8864 135.338 55.8221 134.274 54.5091 134.274C53.1962 134.274 52.1318 135.338 52.1318 136.651C52.1318 137.964 53.1962 139.028 54.5091 139.028Z" stroke="#263238" stroke-linecap="round" stroke-linejoin="round"/>
<path d="M42.5713 157.375H48.3207V150.372C48.3207 149.515 48.661 148.694 49.2667 148.088C49.8725 147.482 50.694 147.142 51.5507 147.142C52.4073 147.142 53.2289 147.482 53.8346 148.088C54.4404 148.694 54.7807 149.515 54.7807 150.372V170.333C54.7807 171.247 55.1432 172.124 55.7888 172.77C56.4343 173.417 57.3101 173.781 58.2239 173.783C59.1388 173.783 60.0162 173.42 60.6631 172.773C61.3101 172.126 61.6735 171.248 61.6735 170.333V134.157C61.6752 133.048 62.117 131.985 62.9019 131.202C63.6867 130.418 64.7505 129.978 65.8596 129.978C66.4085 129.978 66.952 130.086 67.4591 130.296C67.9662 130.506 68.4269 130.814 68.815 131.202C69.2031 131.59 69.511 132.051 69.7211 132.558C69.9311 133.065 70.0392 133.608 70.0392 134.157V182.607C70.0392 183.652 70.4544 184.655 71.1934 185.394C71.9324 186.133 72.9347 186.548 73.9798 186.548C75.0238 186.546 76.0244 186.13 76.7621 185.391C77.4997 184.653 77.9139 183.651 77.9139 182.607V123.498C77.9139 122.128 78.4584 120.813 79.4276 119.844C80.3968 118.875 81.7113 118.33 83.0819 118.33C84.4526 118.33 85.7671 118.875 86.7363 119.844C87.7055 120.813 88.2499 122.128 88.2499 123.498V182.349C88.2499 183.459 88.691 184.524 89.476 185.309C90.2611 186.094 91.3258 186.535 92.436 186.535C93.5462 186.535 94.611 186.094 95.396 185.309C96.1811 184.524 96.6221 183.459 96.6221 182.349V135.456C96.6221 134.15 97.1407 132.898 98.0639 131.975C98.987 131.052 100.239 130.533 101.545 130.533C102.85 130.533 104.102 131.052 105.025 131.975C105.949 132.898 106.467 134.15 106.467 135.456V170.049C106.467 171.027 106.856 171.966 107.548 172.657C108.239 173.349 109.178 173.738 110.156 173.738C110.641 173.739 111.121 173.644 111.569 173.459C112.018 173.274 112.425 173.002 112.768 172.66C113.111 172.317 113.384 171.91 113.57 171.462C113.755 171.014 113.851 170.534 113.851 170.049V151.244C113.851 150.31 114.222 149.415 114.882 148.755C115.542 148.094 116.438 147.723 117.372 147.723C118.305 147.723 119.201 148.094 119.861 148.755C120.521 149.415 120.892 150.31 120.892 151.244V157.375H127.443" stroke="#263238" stroke-miterlimit="10"/>
<path d="M122.824 157.375H128.547V150.372C128.547 149.521 128.883 148.704 129.482 148.099C130.081 147.494 130.894 147.15 131.745 147.142C132.602 147.142 133.423 147.482 134.029 148.088C134.635 148.694 134.975 149.515 134.975 150.372V170.333C134.975 171.248 135.338 172.126 135.985 172.773C136.632 173.42 137.51 173.783 138.425 173.783C139.338 173.781 140.214 173.417 140.86 172.77C141.505 172.124 141.868 171.247 141.868 170.333V134.157C141.87 133.048 142.311 131.985 143.096 131.202C143.881 130.418 144.945 129.978 146.054 129.978C147.162 129.978 148.225 130.418 149.009 131.202C149.793 131.986 150.234 133.049 150.234 134.157V182.607C150.234 183.652 150.649 184.655 151.388 185.394C152.127 186.133 153.129 186.548 154.174 186.548C155.218 186.546 156.219 186.13 156.956 185.391C157.694 184.653 158.108 183.651 158.108 182.607V123.498C158.108 122.128 158.653 120.813 159.622 119.844C160.591 118.875 161.906 118.33 163.276 118.33C164.647 118.33 165.961 118.875 166.931 119.844C167.9 120.813 168.444 122.128 168.444 123.498V182.349C168.443 182.898 168.551 183.443 168.761 183.95C168.97 184.458 169.278 184.92 169.666 185.309C170.054 185.697 170.515 186.006 171.023 186.216C171.53 186.427 172.074 186.535 172.624 186.535C173.174 186.535 173.718 186.427 174.226 186.216C174.734 186.006 175.195 185.698 175.584 185.309C175.973 184.92 176.281 184.459 176.491 183.951C176.702 183.443 176.81 182.899 176.81 182.349V135.456C176.81 134.15 177.329 132.898 178.252 131.975C179.175 131.052 180.427 130.533 181.732 130.533C183.038 130.533 184.29 131.052 185.213 131.975C186.136 132.898 186.655 134.15 186.655 135.456V170.049C186.655 171.027 187.044 171.966 187.735 172.657C188.427 173.349 189.365 173.738 190.344 173.738C190.829 173.739 191.309 173.644 191.757 173.459C192.206 173.274 192.613 173.002 192.956 172.66C193.299 172.317 193.572 171.91 193.757 171.462C193.943 171.014 194.039 170.534 194.039 170.049V151.244C194.039 150.313 194.408 149.419 195.065 148.759C195.723 148.099 196.615 147.727 197.547 147.723C198.48 147.723 199.376 148.094 200.036 148.755C200.696 149.415 201.067 150.31 201.067 151.244V157.375H207.618" stroke="#263238" stroke-miterlimit="10"/>
<path d="M203.077 157.375H208.8V150.372C208.8 149.521 209.136 148.704 209.735 148.099C210.334 147.494 211.147 147.15 211.998 147.142C212.849 147.15 213.662 147.494 214.261 148.099C214.86 148.704 215.196 149.521 215.196 150.372V170.333C215.196 171.248 215.559 172.126 216.206 172.773C216.853 173.42 217.73 173.783 218.645 173.783C219.56 173.783 220.438 173.42 221.085 172.773C221.731 172.126 222.095 171.248 222.095 170.333V134.157C222.097 133.048 222.538 131.985 223.323 131.202C224.108 130.418 225.172 129.978 226.281 129.978C226.83 129.978 227.373 130.086 227.88 130.296C228.388 130.506 228.848 130.814 229.236 131.202C229.625 131.59 229.932 132.051 230.142 132.558C230.352 133.065 230.461 133.608 230.461 134.157V182.607C230.461 183.647 230.871 184.644 231.603 185.382C232.335 186.12 233.329 186.539 234.369 186.548C234.886 186.548 235.398 186.446 235.876 186.248C236.354 186.05 236.788 185.759 237.153 185.393C237.518 185.027 237.808 184.593 238.005 184.115C238.203 183.637 238.304 183.125 238.303 182.607V123.498C238.303 122.128 238.848 120.813 239.817 119.844C240.786 118.875 242.1 118.33 243.471 118.33C244.842 118.33 246.156 118.875 247.125 119.844C248.095 120.813 248.639 122.128 248.639 123.498V182.349C248.639 183.458 249.079 184.522 249.863 185.307C250.646 186.092 251.71 186.533 252.819 186.535C253.368 186.535 253.913 186.427 254.421 186.216C254.928 186.006 255.39 185.698 255.779 185.309C256.167 184.92 256.476 184.459 256.686 183.951C256.896 183.443 257.005 182.899 257.005 182.349V135.456C257.005 134.15 257.523 132.898 258.447 131.975C259.37 131.052 260.622 130.533 261.927 130.533C263.233 130.533 264.485 131.052 265.408 131.975C266.331 132.898 266.85 134.15 266.85 135.456V170.049C266.85 171.027 267.238 171.966 267.93 172.657C268.622 173.349 269.56 173.738 270.538 173.738C271.023 173.739 271.504 173.644 271.952 173.459C272.4 173.274 272.808 173.002 273.151 172.66C273.494 172.317 273.766 171.91 273.952 171.462C274.138 171.014 274.234 170.534 274.234 170.049V151.244C274.234 150.31 274.604 149.415 275.265 148.755C275.925 148.094 276.821 147.723 277.754 147.723C278.688 147.723 279.584 148.094 280.244 148.755C280.904 149.415 281.275 150.31 281.275 151.244V157.375H287.858" stroke="#263238" stroke-miterlimit="10"/>
<path d="M135.686 51.2307C135.686 51.2307 136.7 48.0653 137.624 45.5782C138.547 43.0911 140.111 41.0562 140.905 40.4877C141.7 39.9192 145.653 38.5497 153.341 40.2616C161.028 41.9735 164.536 44.7836 165.776 45.8043C167.017 46.825 167.023 48.5175 167.249 50.5524C167.406 51.8834 167.632 53.2052 167.927 54.5124C167.927 54.5124 167.133 52.8134 157.411 51.4568C147.688 50.1002 143.929 49.1958 141.112 50.5524C138.295 51.909 135.007 53.608 135.007 53.608L135.686 51.2307Z" fill="#263238" stroke="#263238" stroke-linecap="round" stroke-linejoin="round"/>
<path d="M138.115 67.5617C136.592 67.4247 135.081 67.1808 133.593 66.8317C129.904 66.0953 126.887 63.3433 130.24 58.7632C133.593 54.183 135.77 50.6946 135.77 50.6946C135.77 50.6946 137.159 48.1106 142.475 46.7346C147.792 45.3587 159.323 48.8406 163.845 50.5719C168.367 52.3032 171.978 54.4285 173.645 57.3678C175.311 60.3071 173.871 61.205 171.158 64.0474C168.444 66.8898 166.752 67.7555 162.23 68.9958C157.708 70.2361 138.115 67.5617 138.115 67.5617Z" fill="#263238" stroke="#263238" stroke-linecap="round" stroke-linejoin="round"/>
<path d="M141.629 52.4904C141.629 52.4904 137.269 56.515 137.269 58.5241C137.269 60.5331 137.604 67.2386 138.108 69.7516C138.612 72.2645 142.301 79.9777 143.806 81.1535C145.311 82.3292 150.512 80.9855 150.512 80.9855L153.031 84.3382L166.597 75.6237C166.597 75.6237 164.413 70.7593 164.246 70.2554C164.117 69.0865 164.061 67.9107 164.078 66.7347C164.078 66.7347 166.093 65.7334 166.765 64.0538C167.187 62.8049 167.405 61.4962 167.411 60.1778C167.411 60.1778 161.545 54.3122 155.008 52.3031C148.47 50.294 141.629 52.4904 141.629 52.4904Z" fill="white" stroke="#263238" stroke-linecap="round" stroke-linejoin="round"/>
<path d="M142.805 58.7114L143.141 61.3923C143.141 61.3923 141.461 63.2334 141.461 64.5771C141.461 65.9208 143.806 65.9208 143.806 65.9208" stroke="#263238" stroke-linecap="round" stroke-linejoin="round"/>
<path d="M147.663 57.8716L147.831 59.0473L152.023 57.7036" stroke="#263238" stroke-linecap="round" stroke-linejoin="round"/>
<path d="M139.452 61.3923L139.013 63.2593L141.694 61.7476" stroke="#263238" stroke-linecap="round" stroke-linejoin="round"/>
<path d="M151.054 59.5448C151.496 59.5448 151.855 59.2353 151.855 58.8536C151.855 58.4718 151.496 58.1624 151.054 58.1624C150.612 58.1624 150.253 58.4718 150.253 58.8536C150.253 59.2353 150.612 59.5448 151.054 59.5448Z" fill="#263238"/>
<path d="M141.358 63.2591C141.8 63.2591 142.159 62.9497 142.159 62.5679C142.159 62.1862 141.8 61.8767 141.358 61.8767C140.915 61.8767 140.557 62.1862 140.557 62.5679C140.557 62.9497 140.915 63.2591 141.358 63.2591Z" fill="#263238"/>
<path d="M145.408 56.4311C145.408 56.4311 146.319 53.2011 149.362 52.5874C149.985 52.4595 150.631 52.4856 151.242 52.6635C151.853 52.8413 152.412 53.1656 152.87 53.6081" stroke="#263238" stroke-width="2" stroke-linecap="round" stroke-linejoin="round"/>
<path d="M141.674 58.0137C141.674 58.0137 140.666 57.232 139.865 57.5615C139.411 57.7587 139.016 58.071 138.719 58.4675C138.422 58.864 138.234 59.331 138.173 59.8225" stroke="#263238" stroke-width="2" stroke-linecap="round" stroke-linejoin="round"/>
<path d="M159.995 56.8832C161.933 58.4659 161.577 60.8432 163.044 60.2747C164.013 59.8607 164.93 59.3338 165.776 58.7049C163.492 56.7289 160.978 55.035 158.289 53.6597C158.313 54.2906 158.478 54.9081 158.774 55.4663C159.069 56.0244 159.486 56.5087 159.995 56.8832Z" fill="#263238" stroke="#263238" stroke-linecap="round" stroke-linejoin="round"/>
<path d="M150.512 81.0051L155.919 77.0063L153.031 84.3578L150.512 81.0051Z" fill="#263238" stroke="#263238" stroke-linecap="round" stroke-linejoin="round"/>
<path d="M139.755 168.699C139.755 168.699 139.529 182.944 139.529 197.64C139.529 212.337 140.285 225.78 142.113 230.076C143.941 234.372 148.767 256.659 149.219 259.598C149.671 262.537 148.993 267.059 148.993 269.288C148.999 270.672 149.228 272.046 149.671 273.358C149.671 273.358 148.541 275.167 148.541 276.297C148.541 277.428 147.184 279.689 148.541 280.367C149.898 281.045 150.802 281.723 157.585 282.854C164.368 283.984 168.664 277.428 169.794 275.619C170.925 273.81 164.497 230.722 163.593 222.808C162.688 214.895 163.289 198.512 164.646 192.181C166.002 185.851 165.324 171.154 164.42 168.215C163.515 165.275 154.697 163.467 149.949 163.919C145.201 164.371 139.755 168.699 139.755 168.699Z" fill="#263238" stroke="#263238" stroke-linecap="round" stroke-linejoin="round"/>
<path d="M157.165 175.03C157.165 175.03 152.268 209.727 152.268 215.379C152.268 221.032 154.756 227.363 155.434 230.076C156.112 232.789 158.696 263.442 159.374 265.477C160.053 267.512 160.279 272.938 160.279 272.938C160.279 272.938 158.47 273.616 158.244 274.973C158.018 276.329 159.148 277.234 159.148 278.364C159.148 279.495 158.018 281.304 157.566 282.886C157.316 283.94 157.395 285.045 157.792 286.052C157.792 286.052 153.27 292.156 151.235 294.191C149.2 296.226 144 300.07 141.06 302.105C138.121 304.14 132.242 306.627 132.016 309.792C131.79 312.958 134.051 315.671 139.704 315.897C145.356 316.123 155.531 316.349 161.183 315.671C166.836 314.993 177.915 308.662 179.723 306.401C181.532 304.14 182.689 303.914 182.689 297.583C182.689 291.252 182.915 285.147 182.689 284.469C182.462 283.791 182.043 282.66 182.462 279.043C182.757 276.983 182.524 274.883 181.784 272.938C182.155 271.827 182.457 270.694 182.689 269.547C182.915 268.19 181.106 265.025 181.106 265.025C181.106 265.025 182.366 241.607 182.366 236.407C182.366 231.206 175.809 219.901 175.809 219.901C175.809 219.901 176.713 215.153 176.713 214.249C176.713 213.345 175.356 211.084 175.356 211.084C175.356 211.084 182.043 192.44 182.689 189.953C183.335 187.466 185.176 179.326 185.628 176.613C186.08 173.9 184.497 168.247 182.462 164.856C180.428 161.464 171.61 157.394 168.444 160.108C165.279 162.821 157.165 175.03 157.165 175.03Z" fill="#263238" stroke="#263238" stroke-linecap="round" stroke-linejoin="round"/>
<path d="M137.947 168.926C137.947 168.926 144.051 179.552 148.121 181.587C152.191 183.622 156.261 180.683 161.913 174.578C167.566 168.473 170.957 163.725 175.027 165.308C179.097 166.891 186.558 182.265 187.689 184.074C188.819 185.883 188.593 169.152 186.332 163.951C184.071 158.751 172.54 156.716 158.554 158.525C144.568 160.334 137.947 168.926 137.947 168.926Z" fill="white" stroke="#263238" stroke-linecap="round" stroke-linejoin="round"/>
<path d="M136.823 161.665C136.823 161.665 136.371 165.734 136.371 167.995C136.371 170.256 139.762 170.03 139.762 170.03C139.762 170.03 149.937 165.734 161.242 165.056C172.547 164.378 183.852 167.317 185.66 167.317C187.469 167.317 188.374 165.734 188.374 163.926C188.374 162.117 186.339 158.047 186.339 158.047C186.339 158.047 181.591 152.847 167.572 152.394C153.554 151.942 143.38 152.168 140.44 154.655C137.501 157.143 136.823 161.665 136.823 161.665Z" fill="#666666" stroke="#263238" stroke-linecap="round" stroke-linejoin="round"/>
<path d="M165.854 73.0591C165.854 73.0591 153.16 82.7491 150.563 84.7453C147.966 86.7414 150.13 88.4921 150.712 88.9249C151.314 89.537 151.845 90.2153 152.294 90.9469C149.303 93.6225 146.123 96.0793 142.779 98.2984C137.152 102.052 136.144 102.627 134.555 104.642C132.966 106.658 127.062 113.298 127.062 113.298C127.54 111.214 127.83 109.091 127.927 106.955C127.927 104.371 129.116 101.212 127.817 99.0477C126.519 96.8836 123.347 94.1446 120.466 94.1446C117.585 94.1446 114.981 95.1523 113.25 97.8914C111.519 100.63 110.188 106.231 109.18 112.291C108.173 118.35 103.735 125.728 105.608 128.609C107.481 131.49 110.511 135.069 114.549 135.069C118.586 135.069 122.191 134.778 124.071 133.047C125.951 131.315 134.846 127.543 135.854 126.819C136.97 126.126 138.126 125.501 139.316 124.946C139.316 124.946 139.174 136.051 138.599 140.521C138.024 144.991 134.271 155.663 133.98 157.963C133.69 160.263 137.301 162.575 137.301 162.575C137.301 162.575 141.048 158.699 152.159 157.672C161.046 156.982 169.978 157.127 178.839 158.105C181.578 158.538 185.473 160.418 187.237 158.686C189 156.955 190.118 156.955 189.821 153.06C189.523 149.164 188.961 144.985 188.961 143.253C188.961 141.522 190.111 127.678 190.111 127.246C190.111 126.813 193.864 110.372 193.864 110.372C193.864 110.372 202.372 107.788 208.141 106.625C213.91 105.462 216.358 97.5425 214.485 92.9236C212.611 88.3047 205.253 83.5502 202.082 81.3861C198.91 79.222 188.38 78.8021 186.939 79.3706C185.499 79.939 181.028 79.0798 177.566 78.647C174.103 78.2142 172.23 78.2142 171.655 78.3563L171.074 78.5049C171.074 78.5049 170.208 73.7439 168.916 72.8782C167.624 72.0126 165.854 73.0591 165.854 73.0591Z" fill="#92E3A9" stroke="#263238" stroke-linecap="round" stroke-linejoin="round"/>
<path d="M198.793 104.358C199.595 104.518 200.406 104.622 201.222 104.668" stroke="#263238" stroke-linecap="round" stroke-linejoin="round"/>
<path d="M183.774 82.3162C183.774 82.3162 180.021 84.3381 181.028 87.6521C182.036 90.9661 188.819 98.6341 192.01 101.218C193.36 102.314 194.89 103.166 196.532 103.738" stroke="#263238" stroke-linecap="round" stroke-linejoin="round"/>
<path d="M190.693 100.94C190.693 100.94 193.148 104.403 195.596 105.411C197.009 106.01 198.532 106.305 200.066 106.276" stroke="#263238" stroke-linecap="round" stroke-linejoin="round"/>
<path d="M126.396 123.389C126.078 124.57 125.586 125.698 124.937 126.735" stroke="#263238" stroke-linecap="round" stroke-linejoin="round"/>
<path d="M127.062 113.298C127.062 113.298 126.661 118.66 126.661 121.399" stroke="#263238" stroke-linecap="round" stroke-linejoin="round"/>
<path d="M126.809 126.012C126.809 126.012 125.653 128.751 123.922 129.184" stroke="#263238" stroke-linecap="round" stroke-linejoin="round"/>
<path d="M138.199 113.033L139.316 124.978L136.183 115.488" stroke="#263238" stroke-linecap="round" stroke-linejoin="round"/>
<path d="M178.438 101.496C178.438 101.496 179.879 107.846 184.898 109.287C189.917 110.727 193.122 110.294 193.122 110.294" stroke="#263238" stroke-linecap="round" stroke-linejoin="round"/>
<path d="M144.685 153.402C144.039 155.863 144.187 157.536 145.86 158.299" stroke="#263238" stroke-linecap="round" stroke-linejoin="round"/>
<path d="M147.365 145.082C147.029 146.498 146.597 147.89 146.073 149.248L145.809 149.946" stroke="#263238" stroke-linecap="round" stroke-linejoin="round"/>
<path d="M151.907 99.4675C151.119 101.702 150.459 103.98 149.93 106.289C148.799 111.716 148.573 124.603 148.573 132.065C148.637 135.792 148.365 139.517 147.759 143.195" stroke="#263238" stroke-linecap="round" stroke-linejoin="round"/>
<path d="M153.096 83.001C153.096 83.001 151.287 86.1664 152.191 87.0708C153.096 87.9752 154.904 91.3667 154.904 91.3667C154.904 91.3667 153.722 94.2866 152.475 97.8267" stroke="#263238" stroke-linecap="round" stroke-linejoin="round"/>
<path d="M150.169 131.832C148.876 131.87 147.613 131.431 146.623 130.598C144.11 128.454 143.25 123.731 143.825 115.288C143.825 114.952 143.877 114.61 143.916 114.267C143.987 105.488 148.664 95.4559 148.903 94.8874C149.045 94.545 149.704 93.182 150.046 93.3241C150.389 93.4662 150.692 92.6781 150.557 92.9946C150.557 92.9946 150.44 93.2724 150.266 93.7246C151.054 91.9546 151.61 90.8176 151.687 90.6561C151.768 90.495 151.909 90.3722 152.079 90.3141C152.25 90.2561 152.436 90.2675 152.598 90.346C152.681 90.3822 152.756 90.4354 152.817 90.5023C152.878 90.5691 152.924 90.648 152.953 90.7339C152.981 90.8197 152.992 90.9107 152.983 91.0008C152.974 91.0909 152.946 91.1781 152.902 91.2569C152.837 91.3925 146.325 104.707 145.272 114.351C145.265 115.107 145.308 115.862 145.402 116.612C145.615 118.24 146.254 120.224 148.07 120.443C150.867 120.779 155.479 116.987 157.889 110.805C161.474 101.625 169.801 82.4842 169.885 82.2904C169.946 82.1191 170.072 81.9789 170.236 81.9008C170.401 81.8226 170.589 81.8129 170.76 81.8737C170.932 81.9345 171.072 82.0609 171.15 82.2251C171.228 82.3893 171.238 82.5777 171.177 82.7491C169.068 90.359 167.488 98.1058 166.448 105.934C164.988 117.439 159.988 129.836 152.133 131.612C151.489 131.759 150.83 131.832 150.169 131.832ZM145.001 119.81C145.001 124.978 145.802 128.124 147.488 129.571C148.535 130.463 149.943 130.695 151.804 130.275C157.953 128.886 163.432 118.802 165.072 105.727C165.796 100.042 166.855 94.6548 167.792 90.4881C165.047 96.9029 161.261 105.831 159.142 111.257C156.707 117.497 151.668 122.239 147.895 121.748C147.296 121.674 146.724 121.46 146.223 121.124C145.722 120.787 145.308 120.337 145.014 119.81H145.001Z" fill="white" stroke="#263238" stroke-linecap="round" stroke-linejoin="round"/>
<path d="M152.191 87.0708L151.513 92.2711L153.548 91.3667L152.191 87.0708Z" fill="white" stroke="#263238" stroke-linecap="round" stroke-linejoin="round"/>
<path d="M170.938 84.0476C170.938 84.0476 165.169 86.5024 163.438 87.6523" stroke="#263238" stroke-linecap="round" stroke-linejoin="round"/>
<path d="M180.75 80.7334C180.75 80.7334 181.183 82.3161 183.632 84.4802C186.08 86.6443 190.841 86.2115 192.721 85.2038C194.601 84.196 195.13 80.9918 195.13 80.9918C195.13 80.9918 192.288 77.8458 190.841 77.7037C189.394 77.5616 181.319 76.6959 180.75 80.7334Z" fill="#666666" stroke="#263238" stroke-linecap="round" stroke-linejoin="round"/>
<path d="M196.138 79.1186C195.861 78.5954 195.563 78.0915 195.26 77.6005C195.316 77.5326 195.367 77.4614 195.415 77.3873C195.603 77.1455 195.728 76.8607 195.779 76.5584C195.83 76.2562 195.805 75.9461 195.706 75.6561C195.415 75.0811 194.116 72.6328 193.684 72.6328C193.458 72.6328 192.456 72.7878 191.545 72.9364L191.377 72.7749C190.968 72.4039 190.6 71.9903 190.279 71.541C190.57 70.5656 191.642 67.9364 191.377 67.019C191.113 66.1017 188.496 65.1456 187.501 65.2878C186.855 65.3847 185.395 67.1805 184.465 68.4338L183.173 68.2012C182.715 66.864 181.81 64.3834 181.28 64.28C180.563 64.1314 179.265 65.7206 179.265 66.4441C179.265 66.6767 179.31 67.2645 179.375 67.9493L177.676 69.0346C177.676 69.0346 175.369 74.6612 174.362 75.8176C173.354 76.9739 169.194 79.5644 166.571 79.6936C163.948 79.8228 161.093 80.1264 161.668 81.8577C162.243 83.5889 164.252 83.7311 168.128 84.1639C172.004 84.5967 175.337 82.7233 176.778 81.8577C178.218 80.992 181.248 81.4248 183.27 81.4248C185.292 81.4248 188.031 80.7078 188.606 80.7078C189.181 80.7078 190.77 81.9998 192.482 82.4391C194.194 82.8783 197.385 81.8577 197.385 81.8577C197.385 81.8577 197.579 81.8577 196.138 79.1186Z" fill="white" stroke="#263238" stroke-linecap="round" stroke-linejoin="round"/>
<path d="M187.049 67.439L186.907 71.4765C186.907 71.4765 185.899 74.7904 186.474 75.9468C187.049 77.1031 189.355 76.0889 189.646 75.514C189.937 74.939 192.101 67.762 191.952 66.864C191.804 65.9661 189.788 64.842 188.638 64.842C188.284 64.8521 187.935 64.9341 187.613 65.0829C187.291 65.2316 187.002 65.4442 186.765 65.7077" fill="white"/>
<path d="M187.049 67.439L186.907 71.4765C186.907 71.4765 185.899 74.7904 186.474 75.9468C187.049 77.1031 189.355 76.0889 189.646 75.514C189.937 74.939 192.101 67.762 191.952 66.864C191.804 65.9661 189.788 64.842 188.638 64.842C188.284 64.8521 187.935 64.9341 187.613 65.0829C187.291 65.2316 187.002 65.4442 186.765 65.7077" stroke="#263238" stroke-linecap="round" stroke-linejoin="round"/>
<path d="M197.146 75.656C197.146 75.656 199.73 77.3873 199.885 77.9622C200.04 78.5372 199.594 81.8382 199.594 83.5889C199.594 85.3395 199.019 87.0514 198.012 86.0437C197.004 85.0359 197.004 81.7155 196.855 81.1405C196.707 80.5656 195.99 80.2749 195.99 80.2749" fill="white"/>
<path d="M197.146 75.656C197.146 75.656 199.73 77.3873 199.885 77.9622C200.04 78.5372 199.594 81.8382 199.594 83.5889C199.594 85.3395 199.019 87.0514 198.012 86.0437C197.004 85.0359 197.004 81.7155 196.855 81.1405C196.707 80.5656 195.99 80.2749 195.99 80.2749" stroke="#263238" stroke-linecap="round" stroke-linejoin="round"/>
<path d="M180.563 62.8264C180.563 62.8264 176.959 62.1094 176.687 63.5499C176.416 64.9905 176.255 69.7515 177.411 70.0099C178.567 70.2683 180.434 70.4427 180.725 70.0099C181.016 69.5771 182.017 64.5254 181.881 63.6597C181.746 62.7941 180.563 62.8264 180.563 62.8264Z" fill="white" stroke="#263238" stroke-linecap="round" stroke-linejoin="round"/>
<path d="M190.654 73.0591C190.654 73.0591 194.116 70.4751 195.124 70.1779C196.132 69.8807 198.735 72.5164 198.735 72.5164C198.497 74.4192 198.11 76.3005 197.579 78.1431C196.855 80.3072 195.99 81.0242 195.124 81.0242C194.887 81.0168 194.654 80.9622 194.438 80.8636C194.223 80.7649 194.029 80.6243 193.868 80.4498C193.708 80.2754 193.583 80.0706 193.503 79.8476C193.422 79.6245 193.387 79.3877 193.399 79.1508C193.399 77.9945 193.832 74.2477 193.832 74.2477" fill="white"/>
<path d="M190.654 73.0591C190.654 73.0591 194.116 70.4751 195.124 70.1779C196.132 69.8807 198.735 72.5164 198.735 72.5164C198.497 74.4192 198.11 76.3005 197.579 78.1431C196.855 80.3072 195.99 81.0242 195.124 81.0242C194.887 81.0168 194.654 80.9622 194.438 80.8636C194.223 80.7649 194.029 80.6243 193.868 80.4498C193.708 80.2754 193.583 80.0706 193.503 79.8476C193.422 79.6245 193.387 79.3877 193.399 79.1508C193.399 77.9945 193.832 74.2477 193.832 74.2477" stroke="#263238" stroke-linecap="round" stroke-linejoin="round"/>
<path d="M183.16 69.4543C183.16 69.4543 181.868 71.1856 180.705 71.4763C179.805 71.6656 178.887 71.763 177.966 71.767" fill="white"/>
<path d="M183.16 69.4543C183.16 69.4543 181.868 71.1856 180.705 71.4763C179.805 71.6656 178.887 71.763 177.966 71.767" stroke="#263238" stroke-linecap="round" stroke-linejoin="round"/>
<path d="M184.626 70.3201C184.689 70.757 184.892 71.1619 185.204 71.4741C185.516 71.7862 185.921 71.9888 186.358 72.0513" fill="white"/>
<path d="M184.626 70.3201C184.689 70.757 184.892 71.1619 185.204 71.4741C185.516 71.7862 185.921 71.9888 186.358 72.0513" stroke="#263238" stroke-linecap="round" stroke-linejoin="round"/>
<path d="M191.235 75.1003C191.235 75.1003 190.945 76.9737 193.109 76.5409L191.235 75.1003Z" fill="white"/>
<path d="M191.235 75.1003C191.235 75.1003 190.945 76.9737 193.109 76.5409" stroke="#263238" stroke-linecap="round" stroke-linejoin="round"/>
<path d="M124.355 91.8382C125.926 89.3891 127.325 86.8333 128.541 84.1895C130.272 80.3135 131.713 77.8458 133.586 75.6817C135.459 73.5176 140.369 69.6739 140.795 69.6287C142.087 69.4801 142.087 71.0693 142.087 71.0693C142.087 71.0693 144.394 69.7773 145.117 70.3458C145.841 70.9142 145.537 72.3548 144.394 73.2334C142.52 74.674 140.072 78.4014 139.923 78.8536C139.813 79.1581 139.668 79.4486 139.49 79.7192C139.49 79.7192 142.662 81.5991 142.662 82.4647C142.588 83.2101 142.394 83.9387 142.087 84.6224C142.226 85.8268 141.965 87.0432 141.345 88.0849C140.337 89.6741 139.62 91.2568 138.761 91.2568C137.901 91.2568 137.469 91.1147 137.469 90.249C137.469 89.3834 138.476 87.3679 138.476 87.3679C137.619 88.1458 136.846 89.0119 136.17 89.9519C135.304 91.2439 134.439 92.8395 132.998 93.4144C131.558 93.9894 128.961 94.7064 128.961 94.7064L126.338 99.0023C125.073 99.2518 123.76 99.0555 122.623 98.4468C121.041 97.439 120.608 95.2749 120.608 95.2749L124.355 91.8382Z" fill="white" stroke="#263238" stroke-linecap="round" stroke-linejoin="round"/>
<path d="M123.347 91.9803C123.347 92.4627 123.465 92.9379 123.69 93.3645C123.915 93.7912 124.241 94.1564 124.639 94.4286C126.08 95.585 128.967 95.7206 128.967 95.7206C128.967 95.7206 129.542 95.2878 129.542 96.0113C129.542 96.7349 127.378 100.482 126.512 101.922C125.647 103.363 120.892 103.654 119.161 101.347C117.43 99.0411 117.572 96.0113 117.869 95.5785C118.166 95.1457 122.048 91.7025 122.048 91.7025C122.048 91.7025 123.205 90.9725 123.347 91.9803Z" fill="#666666" stroke="#263238" stroke-linecap="round" stroke-linejoin="round"/>
<path d="M142.094 71.0693C142.094 71.0693 138.489 73.5177 137.333 75.1068C136.177 76.696 135.459 77.5616 135.459 77.5616" stroke="#263238" stroke-linecap="round" stroke-linejoin="round"/>
<path d="M138.78 82.4648L142.094 84.6225" stroke="#263238" stroke-linecap="round" stroke-linejoin="round"/>
<path d="M139.497 79.7193C139.497 79.7193 138.489 79.0022 137.766 79.435" stroke="#263238" stroke-linecap="round" stroke-linejoin="round"/>
<path d="M180.37 126.069C180.58 124.743 180.392 123.386 179.83 122.167C179.268 120.948 178.357 119.924 177.213 119.223C176.068 118.522 174.742 118.177 173.401 118.23C172.06 118.283 170.765 118.733 169.68 119.523C168.595 120.312 167.768 121.406 167.305 122.665C166.841 123.924 166.762 125.293 167.076 126.597C167.391 127.902 168.085 129.084 169.071 129.994C170.058 130.903 171.292 131.5 172.618 131.708C174.393 131.984 176.205 131.545 177.657 130.488C179.11 129.432 180.085 127.843 180.37 126.069Z" fill="#666666" stroke="#263238" stroke-linecap="round" stroke-linejoin="round"/>
<path d="M207.883 133.072L177.786 130.32L179.252 121.056L208.71 127.71C209.102 127.797 209.446 128.031 209.672 128.363C209.898 128.696 209.988 129.102 209.924 129.499L209.569 131.76C209.502 132.15 209.292 132.5 208.98 132.743C208.668 132.986 208.277 133.103 207.883 133.072Z" fill="#263238" stroke="#263238" stroke-linecap="round" stroke-linejoin="round"/>
<path d="M180.835 121.398L179.252 121.043L177.786 130.307L179.407 130.455L180.835 121.398Z" fill="white" stroke="#263238" stroke-linecap="round" stroke-linejoin="round"/>
<path d="M171.707 131.489C172.008 131.582 172.314 131.656 172.624 131.708H172.812L174.937 118.343C174.872 118.343 174.814 118.343 174.75 118.304C174.439 118.261 174.126 118.238 173.813 118.233L171.707 131.489Z" fill="white" stroke="#263238" stroke-linecap="round" stroke-linejoin="round"/>
</svg>
